1152
1152
1160
1160
1152
1176
1184
1152
1176
1168
1160
1160
1176
1160
1152
1152
1176
1184
1168
1160
1176
1176
1152
1192
1160
1168
1176
1168
1160
1184
1192
1192
1168
1160
1168
1176
1168
1176
1144
1192
1168
1160
1168
1176
1168
1176
1168
1168
1144
1168
1168
1168
1184
1192
1184
1168
1184
1184
1184
1176
1200
1184
1176
1168
1168
1160
1160
1168
1176
1152
1168
1152
1192
1192
1168
1184
1168
1176
1200
1192
1192
1184
1184
1200
1184
1168
1160
1160
1184
1192
1184
1192
1160
1200
1160
1184
1152
1144
1200
1176
1184
1192
1184
1208
