976
984
984
992
992
992
984
984
984
984
992
1000
992
992
992
1000
992
1000
992
992
1000
992
1000
1000
1000
1000
1000
1000
992
1000
1000
1000
1000
992
1000
1000
1000
1000
1000
1000
1000
992
1000
1000
1000
1000
1000
1000
992
1000
1000
992
992
992
1000
992
1000
992
1000
1000
1008
1000
1000
1000
1000
1008
1000
1000
1000
1000
1000
1008
1000
1000
1000
1000
992
1000
992
1000
1000
1000
1000
1000
1008
1008
1008
1008
1008
1008
1008
1008
1008
1008
1016
1008
1008
1008
1008
