160
160
160
160
160
160
152
160
160
160
160
152
160
160
144
152
152
144
160
152
152
160
152
160
160
160
160
160
152
144
152
160
152
152
160
160
152
160
152
160
160
152
160
160
160
160
160
160
160
168
168
160
168
152
160
152
160
144
152
160
152
152
152
152
160
136
144
136
128
144
136
144
120
120
112
136
128
112
112
136
104
120
112
112
104
120
136
120
72
136
136
136
128
128
136
128
120
136
120
136
136
88
80
144
128
144
136
144
144
136
144
144
136
112
136
120
144
128
144
144
120
136
144
144
144
136
136
144
136
136
136
144
136
144
144
144
128
144
128
144
136
144
136
152
136
136
144
144
144
144
152
144
152
152
136
152
144
144
144
152
136
144
144
144
136
144
152
152
144
152
136
128
152
152
144
152
152
152
152
152
144
144
144
144
136
152
136
128
136
136
136
136
144
144
144
136
144
144
120
32
136
144
144
144
152
152
160
144
152
152
144
152
136
160
152
152
160
152
160
152
160
152
152
160
152
152
160
152
152
160
160
160
152
144
152
152
152
144
144
152
152
144
152
144
136
152
152
144
144
152
160
144
144
136
120
104
56
104
128
24
80
120
136
120
120
120
120
128
88
96
128
120
120
120
88
120
128
120
136
120
128
96
120
72
112
120
120
104
128
128
120
128
136
128
120
120
144
88
128
128
120
112
128
120
128
128
136
120
144
128
120
120
136
104
144
144
144
144
144
136
136
136
136
120
128
112
136
128
120
120
96
120
128
112
136
136
128
136
120
128
128
80
120
128
136
136
128
128
104
120
112
112
120
120
120
112
136
136
96
112
128
128
128
136
128
128
136
128
136
120
136
128
104
128
104
120
136
136
120
120
120
88
136
128
136
128
128
136
120
104
136
112
112
120
128
128
120
120
120
128
136
128
120
128
128
120
120
128
120
144
120
128
128
128
128
112
128
120
128
128
136
120
120
136
128
136
128
120
136
136
128
136
112
128
144
136
144
128
136
136
136
136
144
136
136
144
112
128
136
136
144
152
136
144
144
136
144
144
144
144
144
136
144
136
136
136
144
128
128
136
120
104
120
120
120
128
120
128
128
104
128
120
112
112
112
128
120
104
120
80
112
96
80
96
112
96
112
104
88
64
96
112
120
