224
232
224
208
224
208
216
216
224
216
216
224
216
216
216
216
224
224
208
208
224
192
208
208
216
200
200
208
200
208
192
208
208
192
200
192
192
200
192
192
200
200
184
200
192
192
192
200
208
208
200
192
208
208
200
208
208
216
208
200
200
200
192
200
208
184
200
192
208
208
208
208
200
200
200
192
208
200
200
208
200
192
200
208
184
208
200
208
208
200
200
192
192
200
200
192
208
200
192
192
192
200
208
200
208
192
200
200
200
208
200
192
200
200
208
208
216
208
208
200
200
216
208
192
200
192
208
200
208
200
208
208
208
208
200
216
208
208
200
216
208
200
216
200
208
200
208
216
200
216
200
216
208
216
208
200
216
208
200
208
208
208
208
208
208
216
208
216
216
200
208
216
208
208
208
208
208
216
208
216
216
200
208
216
216
216
208
216
216
216
216
216
216
208
216
216
216
216
224
216
224
216
224
216
224
216
216
208
216
208
224
208
224
216
232
216
216
208
208
216
216
208
216
208
208
216
216
208
216
200
216
208
216
208
200
216
200
192
208
192
208
208
216
200
200
216
208
200
208
200
208
200
200
216
200
208
208
192
208
208
184
200
168
208
192
208
200
208
208
192
200
208
208
200
200
208
200
208
192
184
216
192
192
200
192
200
208
192
208
208
192
192
200
200
200
184
192
192
208
200
192
192
184
200
192
192
192
184
200
192
192
200
192
184
184
184
192
184
200
192
184
184
192
192
176
192
192
176
184
192
200
176
192
192
192
168
200
192
184
192
176
192
184
192
176
184
160
176
168
184
168
184
192
184
192
184
184
184
176
176
184
184
168
184
160
160
168
176
184
192
176
184
168
144
168
176
176
184
176
176
176
176
192
184
184
184
192
184
160
184
184
192
176
192
192
192
176
192
192
192
192
192
192
192
200
200
192
200
200
192
184
200
208
184
192
200
200
200
192
176
200
192
192
192
184
192
184
192
208
192
192
192
192
192
200
192
200
176
184
192
192
200
200
184
192
208
184
184
192
192
184
192
192
192
184
184
184
192
192
192
200
192
184
192
176
200
184
208
192
192
192
184
200
192
208
192
200
200
200
200
200
192
208
200
184
192
192
200
200
200
200
200
208
200
200
192
200
208
200
192
200
200
192
192
192
200
200
208
200
200
200
216
208
200
208
192
200
192
208
208
208
192
208
208
208
216
216
208
216
200
208
200
208
216
200
216
216
208
208
208
208
200
208
208
208
192
208
192
200
200
208
208
192
208
200
200
200
200
200
208
200
200
200
200
200
200
192
200
200
200
192
200
192
208
200
208
200
200
200
192
200
200
200
192
192
200
200
200
208
192
200
192
200
192
192
192
192
200
208
192
192
192
192
184
192
200
184
200
200
200
192
176
192
192
192
216
184
200
200
192
192
200
208
200
208
200
192
192
200
208
192
200
208
208
208
208
208
208
208
216
216
216
224
224
216
224

